%YAML 1.1
%TAG !u! tag:unity3d.com,2011:
--- !u!1045 &1
EditorBuildSettings:
  m_ObjectHideFlags: 0
  serializedVersion: 2
  m_Scenes:
  - enabled: 1
    path: Assets/Modules/Class_6/Science/Biology/Respiratory/_Scene/RespiratorySystem_AR.unity
    guid: fe308d89e2f518c4eaeff6408fa904e6
